C:\Users\mh\Desktop\Garagenet_interview_project\WeatherCharts\src\main\java\pl\mhajduczek\model\CityWeather.java
C:\Users\mh\Desktop\Garagenet_interview_project\WeatherCharts\src\main\java\pl\mhajduczek\model\Weather.java
C:\Users\mh\Desktop\Garagenet_interview_project\WeatherCharts\src\main\java\pl\mhajduczek\controller\GlobalDefaultExceptionHandler.java
C:\Users\mh\Desktop\Garagenet_interview_project\WeatherCharts\src\main\java\pl\mhajduczek\controller\WeatherDataController.java
C:\Users\mh\Desktop\Garagenet_interview_project\WeatherCharts\src\main\java\pl\mhajduczek\model\City.java
C:\Users\mh\Desktop\Garagenet_interview_project\WeatherCharts\src\main\java\pl\mhajduczek\json\WeatherJsonDeserializer.java
C:\Users\mh\Desktop\Garagenet_interview_project\WeatherCharts\src\main\java\pl\mhajduczek\WeatherChartsApplication.java
C:\Users\mh\Desktop\Garagenet_interview_project\WeatherCharts\src\main\java\pl\mhajduczek\service\WeatherDataService.java
C:\Users\mh\Desktop\Garagenet_interview_project\WeatherCharts\src\main\java\pl\mhajduczek\controller\rest\WeatherDataRestController.java
